{
  "Author": "NotNite",
  "Name": "cl_showpos",
  "Punchline": "Customizable, Source Engine-styled position info",
  "Description": "Shows your exact position, rotation, and velocity on screen. Based off of the cl_showpos command from the Source Engine.",
  "InternalName": "cl_showpos",
  "RepoUrl": "https://gitlab.com/jules/cl_showpos",
  "ApplicableVersion": "any",
  "Tags": ["ui"],
  "CategoryTags": ["ui"]
}
